// Jest Snapshot v1, https://goo.gl/fbAQLP

exports[`cature poster flags component should renders correctly for props false 1`] = `
<View
  style={
    Array [
      Object {
        "alignItems": "center",
        "borderRadius": 5,
        "flexDirection": "row",
        "marginBottom": 5,
        "marginRight": 8,
      },
      undefined,
    ]
  }
>
  <NsfwToggle
    containerStyle={
      Object {
        "alignItems": "center",
        "flexDirection": "row",
        "justifyContent": "center",
        "paddingLeft": 10,
      }
    }
    labelStyle={
      Object {
        "color": "#f44336",
        "fontFamily": "Roboto",
        "fontSize": 12,
        "fontWeight": "600",
        "marginLeft": 3,
      }
    }
  />
  <View
    activeOpacity={0.65}
    onPress={[Function]}
    style={
      Object {
        "alignItems": "center",
        "flexDirection": "row",
        "justifyContent": "center",
        "paddingLeft": 10,
      }
    }
  >
    <Text
      allowFontScaling={false}
      style={
        Array [
          Object {
            "color": undefined,
            "fontSize": 25,
          },
          undefined,
          Object {
            "fontFamily": "Material Icons",
            "fontStyle": "normal",
            "fontWeight": "normal",
          },
          Object {},
        ]
      }
    >
      
    </Text>
  </View>
  <View
    activeOpacity={0.65}
    onPress={[Function]}
    style={
      Object {
        "alignItems": "center",
        "flexDirection": "row",
        "justifyContent": "center",
        "paddingLeft": 10,
      }
    }
  >
    <Text
      allowFontScaling={false}
      style={
        Array [
          Object {
            "color": undefined,
            "fontSize": 25,
          },
          undefined,
          Object {
            "fontFamily": "FontAwesome",
            "fontStyle": "normal",
            "fontWeight": "normal",
          },
          Object {},
        ]
      }
    >
      
    </Text>
  </View>
  <View
    activeOpacity={0.65}
    onPress={[Function]}
    style={
      Array [
        Object {
          "alignItems": "center",
          "flexDirection": "row",
          "justifyContent": "center",
          "paddingLeft": 10,
        },
        Object {
          "borderRightWidth": 0,
        },
      ]
    }
  >
    <Text
      accessibilityLabel="Post lock button"
      allowFontScaling={false}
      style={
        Array [
          Object {
            "color": undefined,
            "fontSize": 30,
          },
          undefined,
          Object {
            "fontFamily": "Ionicons",
            "fontStyle": "normal",
            "fontWeight": "normal",
          },
          Object {},
        ]
      }
    >
      
    </Text>
  </View>
  <Modal
    animationType="none"
    hardwareAccelerated={false}
    hideModalContentWhileAnimating={false}
    onModalHide={[Function]}
    onModalWillHide={[Function]}
    onModalWillShow={[Function]}
    onRequestClose={[Function]}
    scrollHorizontal={false}
    scrollOffset={0}
    scrollOffsetMax={0}
    scrollTo={null}
    supportedOrientations={
      Array [
        "portrait",
        "landscape",
      ]
    }
    swipeThreshold={100}
    transparent={true}
    visible={false}
  >
    <View
      accessible={true}
      focusable={true}
      forwardedRef={[Function]}
      onClick={[Function]}
      onResponderGrant={[Function]}
      onResponderMove={[Function]}
      onResponderRelease={[Function]}
      onResponderTerminate={[Function]}
      onResponderTerminationRequest={[Function]}
      onStartShouldSetResponder={[Function]}
      style={
        Object {
          "backgroundColor": "black",
          "bottom": 0,
          "height": 1334,
          "left": 0,
          "opacity": 0,
          "position": "absolute",
          "right": 0,
          "top": 0,
          "width": 750,
        }
      }
    />
    <View
      onLayout={[Function]}
      pointerEvents="box-none"
      style={
        Array [
          Object {
            "margin": 37.5,
            "transform": Array [
              Object {
                "translateY": 0,
              },
            ],
          },
          Object {
            "flex": 1,
            "justifyContent": "center",
          },
          undefined,
          Object {
            "margin": 0,
          },
        ]
      }
    >
      <View
        forwardedRef={[Function]}
        hideModalContentWhileAnimating={false}
        onModalHide={[Function]}
        onModalWillHide={[Function]}
        onModalWillShow={[Function]}
        pointerEvents="box-none"
        scrollHorizontal={false}
        scrollOffset={0}
        scrollOffsetMax={0}
        scrollTo={null}
        style={
          Object {
            "flex": 1,
            "justifyContent": "center",
            "margin": 37.5,
            "transform": Array [
              Object {
                "translateY": 0,
              },
            ],
          }
        }
        supportedOrientations={
          Array [
            "portrait",
            "landscape",
          ]
        }
        swipeThreshold={100}
      >
        <View
          style={
            Object {
              "backgroundColor": "#fff",
              "borderRadius": 5,
              "padding": 10,
            }
          }
        >
          <View
            style={
              Object {
                "alignItems": "center",
                "flexDirection": "row",
              }
            }
          >
            <Text
              style={
                Object {
                  "flexGrow": 1,
                  "fontFamily": "Roboto",
                  "fontSize": 14,
                  "fontWeight": "600",
                  "letterSpacing": 1,
                  "marginLeft": 10,
                }
              }
            >
              SHARE
            </Text>
            <Text
              allowFontScaling={false}
              onPress={[Function]}
              style={
                Array [
                  Object {
                    "color": undefined,
                    "fontSize": 28,
                  },
                  Object {
                    "alignSelf": "flex-end",
                    "marginRight": 10,
                    "padding": 5,
                  },
                  Object {
                    "fontFamily": "Ionicons",
                    "fontStyle": "normal",
                    "fontWeight": "normal",
                  },
                  Object {},
                ]
              }
            >
              
            </Text>
          </View>
          <View
            activeOpacity={0.65}
            disabled={true}
            onPress={[Function]}
            style={
              Object {
                "alignItems": "center",
                "flexDirection": "row",
                "padding": 10,
              }
            }
          >
            <Text
              allowFontScaling={false}
              style={
                Array [
                  Object {
                    "color": "#cccccc",
                    "fontSize": 25,
                  },
                  undefined,
                  Object {
                    "fontFamily": "Ionicons",
                    "fontStyle": "normal",
                    "fontWeight": "normal",
                  },
                  Object {},
                ]
              }
            >
              
            </Text>
            <Text
              style={
                Array [
                  Object {
                    "flexGrow": 1,
                    "fontFamily": "Roboto",
                    "fontSize": 13,
                    "letterSpacing": 1,
                    "marginLeft": 6,
                  },
                  undefined,
                ]
              }
            >
              FACEBOOK
            </Text>
          </View>
          <View
            activeOpacity={0.65}
            disabled={true}
            onPress={[Function]}
            style={
              Object {
                "alignItems": "center",
                "flexDirection": "row",
                "padding": 10,
              }
            }
          >
            <Text
              allowFontScaling={false}
              style={
                Array [
                  Object {
                    "color": "#cccccc",
                    "fontSize": 25,
                  },
                  undefined,
                  Object {
                    "fontFamily": "Ionicons",
                    "fontStyle": "normal",
                    "fontWeight": "normal",
                  },
                  Object {},
                ]
              }
            >
              
            </Text>
            <Text
              style={
                Array [
                  Object {
                    "flexGrow": 1,
                    "fontFamily": "Roboto",
                    "fontSize": 13,
                    "letterSpacing": 1,
                    "marginLeft": 6,
                  },
                  undefined,
                ]
              }
            >
              TWITTER
            </Text>
          </View>
        </View>
      </View>
    </View>
  </Modal>
  <Modal
    animationType="none"
    hardwareAccelerated={false}
    hideModalContentWhileAnimating={false}
    onModalHide={[Function]}
    onModalWillHide={[Function]}
    onModalWillShow={[Function]}
    onRequestClose={[Function]}
    scrollHorizontal={false}
    scrollOffset={0}
    scrollOffsetMax={0}
    scrollTo={null}
    supportedOrientations={
      Array [
        "portrait",
        "landscape",
      ]
    }
    swipeThreshold={100}
    transparent={true}
    visible={false}
  >
    <View
      accessible={true}
      focusable={true}
      forwardedRef={[Function]}
      onClick={[Function]}
      onResponderGrant={[Function]}
      onResponderMove={[Function]}
      onResponderRelease={[Function]}
      onResponderTerminate={[Function]}
      onResponderTerminationRequest={[Function]}
      onStartShouldSetResponder={[Function]}
      style={
        Object {
          "backgroundColor": "black",
          "bottom": 0,
          "height": 1334,
          "left": 0,
          "opacity": 0,
          "position": "absolute",
          "right": 0,
          "top": 0,
          "width": 750,
        }
      }
    />
    <View
      onLayout={[Function]}
      pointerEvents="box-none"
      style={
        Array [
          Object {
            "margin": 37.5,
            "transform": Array [
              Object {
                "translateY": 0,
              },
            ],
          },
          Object {
            "flex": 1,
            "justifyContent": "center",
          },
          undefined,
          Object {
            "margin": 0,
          },
        ]
      }
    >
      <View
        forwardedRef={[Function]}
        hideModalContentWhileAnimating={false}
        onModalHide={[Function]}
        onModalWillHide={[Function]}
        onModalWillShow={[Function]}
        pointerEvents="box-none"
        scrollHorizontal={false}
        scrollOffset={0}
        scrollOffsetMax={0}
        scrollTo={null}
        style={
          Object {
            "flex": 1,
            "justifyContent": "center",
            "margin": 37.5,
            "transform": Array [
              Object {
                "translateY": 0,
              },
            ],
          }
        }
        supportedOrientations={
          Array [
            "portrait",
            "landscape",
          ]
        }
        swipeThreshold={100}
      >
        <View
          style={
            Array [
              Object {
                "backgroundColor": "#fff",
                "borderRadius": 5,
                "padding": 10,
              },
              undefined,
            ]
          }
        >
          <View
            style={
              Object {
                "alignItems": "center",
                "flexDirection": "row",
              }
            }
          >
            <Text
              style={
                Object {
                  "flexGrow": 1,
                  "fontFamily": "Roboto",
                  "fontSize": 14,
                  "fontWeight": "600",
                  "letterSpacing": 1,
                  "marginLeft": 10,
                }
              }
            >
              LOCK BY WIRE
            </Text>
            <Text
              allowFontScaling={false}
              onPress={[Function]}
              style={
                Array [
                  Object {
                    "color": undefined,
                    "fontSize": 28,
                  },
                  undefined,
                  Object {
                    "fontFamily": "Ionicons",
                    "fontStyle": "normal",
                    "fontWeight": "normal",
                  },
                  Object {},
                ]
              }
            >
              
            </Text>
          </View>
          <View>
            <View
              style={
                Object {
                  "alignItems": "center",
                  "flexDirection": "row",
                  "marginTop": 15,
                  "paddingLeft": 10,
                  "paddingRight": 10,
                }
              }
            >
              <TextInput
                accessibilityLabel="Poster lock amount input"
                allowFontScaling={true}
                keyboardType="numeric"
                onChangeText={[Function]}
                rejectResponderTermination={true}
                style={
                  Array [
                    Object {
                      "borderRadius": 3,
                      "borderWidth": 1,
                      "flexGrow": 1,
                      "fontSize": 16,
                      "fontWeight": "300",
                      "marginRight": 3,
                      "padding": 5,
                      "textAlign": "right",
                    },
                    undefined,
                    undefined,
                  ]
                }
                underlineColorAndroid="transparent"
                value="undefined"
              />
              <Text
                style={
                  Object {
                    "fontFamily": "Roboto",
                    "fontSize": 14,
                    "fontWeight": "400",
                    "letterSpacing": 1,
                  }
                }
              >
                TOKENS
              </Text>
            </View>
            <View
              style={
                Object {
                  "flexDirection": "row",
                  "justifyContent": "center",
                  "marginTop": 15,
                }
              }
            >
              <View
                accessibilityLabel="Poster lock done button"
                onPress={[Function]}
                style={
                  Array [
                    undefined,
                    undefined,
                    undefined,
                    undefined,
                    Object {
                      "backgroundColor": "#5DBAC0",
                      "borderRadius": 36,
                    },
                    undefined,
                  ]
                }
                text="Done"
              >
                <Text
                  style={
                    Array [
                      Object {
                        "color": "white",
                      },
                      undefined,
                    ]
                  }
                >
                   
                  Done
                   
                </Text>
              </View>
            </View>
          </View>
        </View>
      </View>
    </View>
  </Modal>
  <Modal
    animationType="none"
    hardwareAccelerated={false}
    hideModalContentWhileAnimating={false}
    onModalHide={[Function]}
    onModalWillHide={[Function]}
    onModalWillShow={[Function]}
    onRequestClose={[Function]}
    scrollHorizontal={false}
    scrollOffset={0}
    scrollOffsetMax={0}
    scrollTo={null}
    supportedOrientations={
      Array [
        "portrait",
        "landscape",
      ]
    }
    swipeThreshold={100}
    transparent={true}
    visible={false}
  >
    <View
      accessible={true}
      focusable={true}
      forwardedRef={[Function]}
      onClick={[Function]}
      onResponderGrant={[Function]}
      onResponderMove={[Function]}
      onResponderRelease={[Function]}
      onResponderTerminate={[Function]}
      onResponderTerminationRequest={[Function]}
      onStartShouldSetResponder={[Function]}
      style={
        Object {
          "backgroundColor": "black",
          "bottom": 0,
          "height": 1334,
          "left": 0,
          "opacity": 0,
          "position": "absolute",
          "right": 0,
          "top": 0,
          "width": 750,
        }
      }
    />
    <View
      onLayout={[Function]}
      pointerEvents="box-none"
      style={
        Array [
          Object {
            "margin": 37.5,
            "transform": Array [
              Object {
                "translateY": 0,
              },
            ],
          },
          Object {
            "flex": 1,
            "justifyContent": "center",
          },
          undefined,
          Object {
            "margin": 0,
          },
        ]
      }
    >
      <View
        forwardedRef={[Function]}
        hideModalContentWhileAnimating={false}
        onModalHide={[Function]}
        onModalWillHide={[Function]}
        onModalWillShow={[Function]}
        pointerEvents="box-none"
        scrollHorizontal={false}
        scrollOffset={0}
        scrollOffsetMax={0}
        scrollTo={null}
        style={
          Object {
            "flex": 1,
            "justifyContent": "center",
            "margin": 37.5,
            "transform": Array [
              Object {
                "translateY": 0,
              },
            ],
          }
        }
        supportedOrientations={
          Array [
            "portrait",
            "landscape",
          ]
        }
        swipeThreshold={100}
      >
        <View
          style={
            Array [
              Object {
                "backgroundColor": "#fff",
                "borderRadius": 5,
                "padding": 10,
              },
              undefined,
            ]
          }
        >
          <View
            style={
              Object {
                "alignItems": "center",
                "flexDirection": "row",
              }
            }
          >
            <Text
              style={
                Object {
                  "flexGrow": 1,
                  "fontFamily": "Roboto",
                  "fontSize": 14,
                  "fontWeight": "600",
                  "letterSpacing": 1,
                  "marginLeft": 10,
                }
              }
            >
              HASHTAGS
            </Text>
            <Text
              onPress={[Function]}
              style={
                Array [
                  Object {
                    "flexGrow": 1,
                    "fontFamily": "Roboto",
                    "fontSize": 14,
                    "fontWeight": "600",
                    "letterSpacing": 1,
                    "marginLeft": 10,
                  },
                  Object {
                    "borderColor": "#cccccc",
                    "borderRadius": 10,
                    "borderWidth": 1,
                    "flexGrow": 0,
                    "fontSize": 12,
                    "fontWeight": "400",
                    "marginRight": 10,
                    "padding": 5,
                    "textAlign": "center",
                  },
                  null,
                ]
              }
            >
              SUGGESTED
            </Text>
            <Text
              allowFontScaling={false}
              onPress={[Function]}
              style={
                Array [
                  Object {
                    "color": undefined,
                    "fontSize": 35,
                  },
                  undefined,
                  Object {
                    "fontFamily": "Ionicons",
                    "fontStyle": "normal",
                    "fontWeight": "normal",
                  },
                  Object {},
                ]
              }
            >
              
            </Text>
          </View>
          <RCTScrollView
            keyboardShouldPersistTaps="always"
          >
            <View>
              <View
                style={
                  Object {
                    "alignItems": "flex-start",
                    "display": "flex",
                    "flex": 1,
                    "flexDirection": "row",
                    "flexWrap": "wrap",
                  }
                }
              />
              <TextInput
                allowFontScaling={true}
                autoCapitalize="none"
                autoFocus={true}
                blurOnSubmit={false}
                keyboardType="default"
                onChangeText={[Function]}
                onEndEditing={[Function]}
                onSubmitEditing={[Function]}
                placeholder="eg. science"
                placeholderTextColor="#AEB0B8"
                rejectResponderTermination={true}
                returnKeyType="next"
                style={
                  Array [
                    Object {
                      "borderBottomWidth": 1,
                      "borderColor": "#ccc",
                      "height": 35,
                      "padding": 10,
                      "width": "100%",
                    },
                    undefined,
                  ]
                }
                testID="tagInput"
                underlineColorAndroid="transparent"
                value=""
              />
            </View>
          </RCTScrollView>
        </View>
      </View>
    </View>
  </Modal>
  <Modal
    animationType="none"
    hardwareAccelerated={false}
    isVisible={false}
    onHide={[Function]}
    transparent={true}
    visible={false}
  >
    <View
      accessible={true}
      focusable={true}
      onClick={[Function]}
      onResponderGrant={[Function]}
      onResponderMove={[Function]}
      onResponderRelease={[Function]}
      onResponderTerminate={[Function]}
      onResponderTerminationRequest={[Function]}
      onStartShouldSetResponder={[Function]}
      style={
        Object {
          "backgroundColor": "black",
          "bottom": 0,
          "height": 1334,
          "left": 0,
          "opacity": 0,
          "position": "absolute",
          "right": 0,
          "top": 0,
          "width": 750,
        }
      }
    />
  </Modal>
</View>
`;

exports[`cature poster flags component should renders correctly for props true 1`] = `
<View
  style={
    Array [
      Object {
        "alignItems": "center",
        "borderRadius": 5,
        "flexDirection": "row",
        "marginBottom": 5,
        "marginRight": 8,
      },
      undefined,
    ]
  }
>
  <NsfwToggle
    containerStyle={
      Object {
        "alignItems": "center",
        "flexDirection": "row",
        "justifyContent": "center",
        "paddingLeft": 10,
      }
    }
    labelStyle={
      Object {
        "color": "#f44336",
        "fontFamily": "Roboto",
        "fontSize": 12,
        "fontWeight": "600",
        "marginLeft": 3,
      }
    }
  />
  <View
    activeOpacity={0.65}
    onPress={[Function]}
    style={
      Object {
        "alignItems": "center",
        "flexDirection": "row",
        "justifyContent": "center",
        "paddingLeft": 10,
      }
    }
  >
    <Text
      allowFontScaling={false}
      style={
        Array [
          Object {
            "color": undefined,
            "fontSize": 25,
          },
          undefined,
          Object {
            "fontFamily": "Material Icons",
            "fontStyle": "normal",
            "fontWeight": "normal",
          },
          Object {},
        ]
      }
    >
      
    </Text>
  </View>
  <View
    activeOpacity={0.65}
    onPress={[Function]}
    style={
      Object {
        "alignItems": "center",
        "flexDirection": "row",
        "justifyContent": "center",
        "paddingLeft": 10,
      }
    }
  >
    <Text
      allowFontScaling={false}
      style={
        Array [
          Object {
            "color": undefined,
            "fontSize": 25,
          },
          undefined,
          Object {
            "fontFamily": "FontAwesome",
            "fontStyle": "normal",
            "fontWeight": "normal",
          },
          Object {},
        ]
      }
    >
      
    </Text>
  </View>
  <View
    activeOpacity={0.65}
    onPress={[Function]}
    style={
      Array [
        Object {
          "alignItems": "center",
          "flexDirection": "row",
          "justifyContent": "center",
          "paddingLeft": 10,
        },
        Object {
          "borderRightWidth": 0,
        },
      ]
    }
  >
    <Text
      accessibilityLabel="Post lock button"
      allowFontScaling={false}
      style={
        Array [
          Object {
            "color": undefined,
            "fontSize": 30,
          },
          undefined,
          Object {
            "fontFamily": "Ionicons",
            "fontStyle": "normal",
            "fontWeight": "normal",
          },
          Object {},
        ]
      }
    >
      
    </Text>
  </View>
  <Modal
    animationType="none"
    hardwareAccelerated={false}
    hideModalContentWhileAnimating={false}
    onModalHide={[Function]}
    onModalWillHide={[Function]}
    onModalWillShow={[Function]}
    onRequestClose={[Function]}
    scrollHorizontal={false}
    scrollOffset={0}
    scrollOffsetMax={0}
    scrollTo={null}
    supportedOrientations={
      Array [
        "portrait",
        "landscape",
      ]
    }
    swipeThreshold={100}
    transparent={true}
    visible={false}
  >
    <View
      accessible={true}
      focusable={true}
      forwardedRef={[Function]}
      onClick={[Function]}
      onResponderGrant={[Function]}
      onResponderMove={[Function]}
      onResponderRelease={[Function]}
      onResponderTerminate={[Function]}
      onResponderTerminationRequest={[Function]}
      onStartShouldSetResponder={[Function]}
      style={
        Object {
          "backgroundColor": "black",
          "bottom": 0,
          "height": 1334,
          "left": 0,
          "opacity": 0,
          "position": "absolute",
          "right": 0,
          "top": 0,
          "width": 750,
        }
      }
    />
    <View
      onLayout={[Function]}
      pointerEvents="box-none"
      style={
        Array [
          Object {
            "margin": 37.5,
            "transform": Array [
              Object {
                "translateY": 0,
              },
            ],
          },
          Object {
            "flex": 1,
            "justifyContent": "center",
          },
          undefined,
          Object {
            "margin": 0,
          },
        ]
      }
    >
      <View
        forwardedRef={[Function]}
        hideModalContentWhileAnimating={false}
        onModalHide={[Function]}
        onModalWillHide={[Function]}
        onModalWillShow={[Function]}
        pointerEvents="box-none"
        scrollHorizontal={false}
        scrollOffset={0}
        scrollOffsetMax={0}
        scrollTo={null}
        style={
          Object {
            "flex": 1,
            "justifyContent": "center",
            "margin": 37.5,
            "transform": Array [
              Object {
                "translateY": 0,
              },
            ],
          }
        }
        supportedOrientations={
          Array [
            "portrait",
            "landscape",
          ]
        }
        swipeThreshold={100}
      >
        <View
          style={
            Object {
              "backgroundColor": "#fff",
              "borderRadius": 5,
              "padding": 10,
            }
          }
        >
          <View
            style={
              Object {
                "alignItems": "center",
                "flexDirection": "row",
              }
            }
          >
            <Text
              style={
                Object {
                  "flexGrow": 1,
                  "fontFamily": "Roboto",
                  "fontSize": 14,
                  "fontWeight": "600",
                  "letterSpacing": 1,
                  "marginLeft": 10,
                }
              }
            >
              SHARE
            </Text>
            <Text
              allowFontScaling={false}
              onPress={[Function]}
              style={
                Array [
                  Object {
                    "color": undefined,
                    "fontSize": 28,
                  },
                  Object {
                    "alignSelf": "flex-end",
                    "marginRight": 10,
                    "padding": 5,
                  },
                  Object {
                    "fontFamily": "Ionicons",
                    "fontStyle": "normal",
                    "fontWeight": "normal",
                  },
                  Object {},
                ]
              }
            >
              
            </Text>
          </View>
          <View
            activeOpacity={0.65}
            disabled={true}
            onPress={[Function]}
            style={
              Object {
                "alignItems": "center",
                "flexDirection": "row",
                "padding": 10,
              }
            }
          >
            <Text
              allowFontScaling={false}
              style={
                Array [
                  Object {
                    "color": "#cccccc",
                    "fontSize": 25,
                  },
                  undefined,
                  Object {
                    "fontFamily": "Ionicons",
                    "fontStyle": "normal",
                    "fontWeight": "normal",
                  },
                  Object {},
                ]
              }
            >
              
            </Text>
            <Text
              style={
                Array [
                  Object {
                    "flexGrow": 1,
                    "fontFamily": "Roboto",
                    "fontSize": 13,
                    "letterSpacing": 1,
                    "marginLeft": 6,
                  },
                  undefined,
                ]
              }
            >
              FACEBOOK
            </Text>
          </View>
          <View
            activeOpacity={0.65}
            disabled={true}
            onPress={[Function]}
            style={
              Object {
                "alignItems": "center",
                "flexDirection": "row",
                "padding": 10,
              }
            }
          >
            <Text
              allowFontScaling={false}
              style={
                Array [
                  Object {
                    "color": "#cccccc",
                    "fontSize": 25,
                  },
                  undefined,
                  Object {
                    "fontFamily": "Ionicons",
                    "fontStyle": "normal",
                    "fontWeight": "normal",
                  },
                  Object {},
                ]
              }
            >
              
            </Text>
            <Text
              style={
                Array [
                  Object {
                    "flexGrow": 1,
                    "fontFamily": "Roboto",
                    "fontSize": 13,
                    "letterSpacing": 1,
                    "marginLeft": 6,
                  },
                  undefined,
                ]
              }
            >
              TWITTER
            </Text>
          </View>
        </View>
      </View>
    </View>
  </Modal>
  <Modal
    animationType="none"
    hardwareAccelerated={false}
    hideModalContentWhileAnimating={false}
    onModalHide={[Function]}
    onModalWillHide={[Function]}
    onModalWillShow={[Function]}
    onRequestClose={[Function]}
    scrollHorizontal={false}
    scrollOffset={0}
    scrollOffsetMax={0}
    scrollTo={null}
    supportedOrientations={
      Array [
        "portrait",
        "landscape",
      ]
    }
    swipeThreshold={100}
    transparent={true}
    visible={false}
  >
    <View
      accessible={true}
      focusable={true}
      forwardedRef={[Function]}
      onClick={[Function]}
      onResponderGrant={[Function]}
      onResponderMove={[Function]}
      onResponderRelease={[Function]}
      onResponderTerminate={[Function]}
      onResponderTerminationRequest={[Function]}
      onStartShouldSetResponder={[Function]}
      style={
        Object {
          "backgroundColor": "black",
          "bottom": 0,
          "height": 1334,
          "left": 0,
          "opacity": 0,
          "position": "absolute",
          "right": 0,
          "top": 0,
          "width": 750,
        }
      }
    />
    <View
      onLayout={[Function]}
      pointerEvents="box-none"
      style={
        Array [
          Object {
            "margin": 37.5,
            "transform": Array [
              Object {
                "translateY": 0,
              },
            ],
          },
          Object {
            "flex": 1,
            "justifyContent": "center",
          },
          undefined,
          Object {
            "margin": 0,
          },
        ]
      }
    >
      <View
        forwardedRef={[Function]}
        hideModalContentWhileAnimating={false}
        onModalHide={[Function]}
        onModalWillHide={[Function]}
        onModalWillShow={[Function]}
        pointerEvents="box-none"
        scrollHorizontal={false}
        scrollOffset={0}
        scrollOffsetMax={0}
        scrollTo={null}
        style={
          Object {
            "flex": 1,
            "justifyContent": "center",
            "margin": 37.5,
            "transform": Array [
              Object {
                "translateY": 0,
              },
            ],
          }
        }
        supportedOrientations={
          Array [
            "portrait",
            "landscape",
          ]
        }
        swipeThreshold={100}
      >
        <View
          style={
            Array [
              Object {
                "backgroundColor": "#fff",
                "borderRadius": 5,
                "padding": 10,
              },
              undefined,
            ]
          }
        >
          <View
            style={
              Object {
                "alignItems": "center",
                "flexDirection": "row",
              }
            }
          >
            <Text
              style={
                Object {
                  "flexGrow": 1,
                  "fontFamily": "Roboto",
                  "fontSize": 14,
                  "fontWeight": "600",
                  "letterSpacing": 1,
                  "marginLeft": 10,
                }
              }
            >
              LOCK BY WIRE
            </Text>
            <Text
              allowFontScaling={false}
              onPress={[Function]}
              style={
                Array [
                  Object {
                    "color": undefined,
                    "fontSize": 28,
                  },
                  undefined,
                  Object {
                    "fontFamily": "Ionicons",
                    "fontStyle": "normal",
                    "fontWeight": "normal",
                  },
                  Object {},
                ]
              }
            >
              
            </Text>
          </View>
          <View>
            <View
              style={
                Object {
                  "alignItems": "center",
                  "flexDirection": "row",
                  "marginTop": 15,
                  "paddingLeft": 10,
                  "paddingRight": 10,
                }
              }
            >
              <TextInput
                accessibilityLabel="Poster lock amount input"
                allowFontScaling={true}
                keyboardType="numeric"
                onChangeText={[Function]}
                rejectResponderTermination={true}
                style={
                  Array [
                    Object {
                      "borderRadius": 3,
                      "borderWidth": 1,
                      "flexGrow": 1,
                      "fontSize": 16,
                      "fontWeight": "300",
                      "marginRight": 3,
                      "padding": 5,
                      "textAlign": "right",
                    },
                    undefined,
                    undefined,
                  ]
                }
                underlineColorAndroid="transparent"
                value="undefined"
              />
              <Text
                style={
                  Object {
                    "fontFamily": "Roboto",
                    "fontSize": 14,
                    "fontWeight": "400",
                    "letterSpacing": 1,
                  }
                }
              >
                TOKENS
              </Text>
            </View>
            <View
              style={
                Object {
                  "flexDirection": "row",
                  "justifyContent": "center",
                  "marginTop": 15,
                }
              }
            >
              <View
                accessibilityLabel="Poster lock done button"
                onPress={[Function]}
                style={
                  Array [
                    undefined,
                    undefined,
                    undefined,
                    undefined,
                    Object {
                      "backgroundColor": "#5DBAC0",
                      "borderRadius": 36,
                    },
                    undefined,
                  ]
                }
                text="Done"
              >
                <Text
                  style={
                    Array [
                      Object {
                        "color": "white",
                      },
                      undefined,
                    ]
                  }
                >
                   
                  Done
                   
                </Text>
              </View>
            </View>
          </View>
        </View>
      </View>
    </View>
  </Modal>
  <Modal
    animationType="none"
    hardwareAccelerated={false}
    hideModalContentWhileAnimating={false}
    onModalHide={[Function]}
    onModalWillHide={[Function]}
    onModalWillShow={[Function]}
    onRequestClose={[Function]}
    scrollHorizontal={false}
    scrollOffset={0}
    scrollOffsetMax={0}
    scrollTo={null}
    supportedOrientations={
      Array [
        "portrait",
        "landscape",
      ]
    }
    swipeThreshold={100}
    transparent={true}
    visible={false}
  >
    <View
      accessible={true}
      focusable={true}
      forwardedRef={[Function]}
      onClick={[Function]}
      onResponderGrant={[Function]}
      onResponderMove={[Function]}
      onResponderRelease={[Function]}
      onResponderTerminate={[Function]}
      onResponderTerminationRequest={[Function]}
      onStartShouldSetResponder={[Function]}
      style={
        Object {
          "backgroundColor": "black",
          "bottom": 0,
          "height": 1334,
          "left": 0,
          "opacity": 0,
          "position": "absolute",
          "right": 0,
          "top": 0,
          "width": 750,
        }
      }
    />
    <View
      onLayout={[Function]}
      pointerEvents="box-none"
      style={
        Array [
          Object {
            "margin": 37.5,
            "transform": Array [
              Object {
                "translateY": 0,
              },
            ],
          },
          Object {
            "flex": 1,
            "justifyContent": "center",
          },
          undefined,
          Object {
            "margin": 0,
          },
        ]
      }
    >
      <View
        forwardedRef={[Function]}
        hideModalContentWhileAnimating={false}
        onModalHide={[Function]}
        onModalWillHide={[Function]}
        onModalWillShow={[Function]}
        pointerEvents="box-none"
        scrollHorizontal={false}
        scrollOffset={0}
        scrollOffsetMax={0}
        scrollTo={null}
        style={
          Object {
            "flex": 1,
            "justifyContent": "center",
            "margin": 37.5,
            "transform": Array [
              Object {
                "translateY": 0,
              },
            ],
          }
        }
        supportedOrientations={
          Array [
            "portrait",
            "landscape",
          ]
        }
        swipeThreshold={100}
      >
        <View
          style={
            Array [
              Object {
                "backgroundColor": "#fff",
                "borderRadius": 5,
                "padding": 10,
              },
              undefined,
            ]
          }
        >
          <View
            style={
              Object {
                "alignItems": "center",
                "flexDirection": "row",
              }
            }
          >
            <Text
              style={
                Object {
                  "flexGrow": 1,
                  "fontFamily": "Roboto",
                  "fontSize": 14,
                  "fontWeight": "600",
                  "letterSpacing": 1,
                  "marginLeft": 10,
                }
              }
            >
              HASHTAGS
            </Text>
            <Text
              onPress={[Function]}
              style={
                Array [
                  Object {
                    "flexGrow": 1,
                    "fontFamily": "Roboto",
                    "fontSize": 14,
                    "fontWeight": "600",
                    "letterSpacing": 1,
                    "marginLeft": 10,
                  },
                  Object {
                    "borderColor": "#cccccc",
                    "borderRadius": 10,
                    "borderWidth": 1,
                    "flexGrow": 0,
                    "fontSize": 12,
                    "fontWeight": "400",
                    "marginRight": 10,
                    "padding": 5,
                    "textAlign": "center",
                  },
                  null,
                ]
              }
            >
              SUGGESTED
            </Text>
            <Text
              allowFontScaling={false}
              onPress={[Function]}
              style={
                Array [
                  Object {
                    "color": undefined,
                    "fontSize": 35,
                  },
                  undefined,
                  Object {
                    "fontFamily": "Ionicons",
                    "fontStyle": "normal",
                    "fontWeight": "normal",
                  },
                  Object {},
                ]
              }
            >
              
            </Text>
          </View>
          <RCTScrollView
            keyboardShouldPersistTaps="always"
          >
            <View>
              <View
                style={
                  Object {
                    "alignItems": "flex-start",
                    "display": "flex",
                    "flex": 1,
                    "flexDirection": "row",
                    "flexWrap": "wrap",
                  }
                }
              />
              <TextInput
                allowFontScaling={true}
                autoCapitalize="none"
                autoFocus={true}
                blurOnSubmit={false}
                keyboardType="default"
                onChangeText={[Function]}
                onEndEditing={[Function]}
                onSubmitEditing={[Function]}
                placeholder="eg. science"
                placeholderTextColor="#AEB0B8"
                rejectResponderTermination={true}
                returnKeyType="next"
                style={
                  Array [
                    Object {
                      "borderBottomWidth": 1,
                      "borderColor": "#ccc",
                      "height": 35,
                      "padding": 10,
                      "width": "100%",
                    },
                    undefined,
                  ]
                }
                testID="tagInput"
                underlineColorAndroid="transparent"
                value=""
              />
            </View>
          </RCTScrollView>
        </View>
      </View>
    </View>
  </Modal>
  <Modal
    animationType="none"
    hardwareAccelerated={false}
    isVisible={false}
    onHide={[Function]}
    transparent={true}
    visible={false}
  >
    <View
      accessible={true}
      focusable={true}
      onClick={[Function]}
      onResponderGrant={[Function]}
      onResponderMove={[Function]}
      onResponderRelease={[Function]}
      onResponderTerminate={[Function]}
      onResponderTerminationRequest={[Function]}
      onStartShouldSetResponder={[Function]}
      style={
        Object {
          "backgroundColor": "black",
          "bottom": 0,
          "height": 1334,
          "left": 0,
          "opacity": 0,
          "position": "absolute",
          "right": 0,
          "top": 0,
          "width": 750,
        }
      }
    />
  </Modal>
</View>
`;
