// Jest Snapshot v1, https://goo.gl/fbAQLP

exports[`renders correctly 1`] = `
<View
  onPress={[Function]}
  style={
    Object {
      "flex": 1,
      "marginLeft": 8,
    }
  }
>
  <Text>
    <Text
      style={
        Object {
          "fontWeight": "600",
        }
      }
    >
      someUser
    </Text>
    <Text>
       
      commented on
       
    </Text>
    <Text
      style={
        Object {
          "fontWeight": "600",
        }
      }
    >
      some owner's activity
    </Text>
  </Text>
  <Text
    style={
      Object {
        "fontSize": 11,
      }
    }
  >
    Invalid date
  </Text>
</View>
`;
