// Jest Snapshot v1, https://goo.gl/fbAQLP

exports[`blog view screen component should renders correctly 1`] = `
<View
  style={
    Array [
      Object {
        "flex": 1,
      },
      undefined,
    ]
  }
>
  <CommentList
    entity={
      Object {
        "access_id": "2",
        "allow_comments": true,
        "boost_rejection_reason": -1,
        "categories": Array [],
        "category": "education",
        "container_guid": "100",
        "custom_meta": Object {
          "author": "",
          "description": "",
          "title": "",
        },
        "description": "Some Blog",
        "draft_access_id": "0",
        "excerpt": "Some description",
        "featured": false,
        "featured_id": false,
        "guid": "1",
        "header_bg": "1",
        "header_top": "0",
        "impressions": 100,
        "isOwner": [Function],
        "last_save": "1524843907",
        "last_updated": "1524838665",
        "license": "attribution-noncommercial-cc",
        "mature": false,
        "monetized": false,
        "ownerObj": Object {
          "__list": null,
          "access_id": "2",
          "allow_comments": true,
          "banned": "no",
          "blocked": false,
          "boostProPlus": false,
          "boost_autorotate": true,
          "boost_rating": "2",
          "briefdescription": "",
          "canary": false,
          "categories": Array [
            "music",
            "nature",
            "news",
            "politics",
            "science",
            "technology",
            "education",
            "art",
            "health",
          ],
          "chat": true,
          "city": "",
          "confirmEmail": [Function],
          "container_guid": "0",
          "deleted": "0",
          "disable_autoplay_videos": undefined,
          "disabled_boost": false,
          "dob": "",
          "email_confirmed": false,
          "eth_wallet": "0x6fffffdadae350ddd5a1777d5a1777a4f39f0317",
          "fb": false,
          "feature_flags": false,
          "featured_id": "725165605782560768",
          "founder": false,
          "gender": "private",
          "getAvatarSource": [MockFunction],
          "groupsCount": 0,
          "guid": 100,
          "icontime": "1523515420",
          "impressions": 100,
          "isOwner": [Function],
          "is_admin": false,
          "language": "en",
          "last_accepted_tos": 0,
          "legacy_guid": false,
          "mature": "1",
          "mature_channel": "0",
          "mature_visibility": false,
          "merchant": Object {
            "exclusive": Object {
              "amount": "10",
              "enabled": true,
            },
            "id": "acct_Dsdfjdlsaf34243",
            "service": "stripe",
          },
          "mode": 0,
          "monetized": "",
          "name": "Some User",
          "nsfw": Array [],
          "onchain_booster": 0,
          "owner_guid": "0",
          "pending_subscribe": false,
          "permissions": Object {},
          "pinned_posts": Array [],
          "plus": true,
          "pro": false,
          "programs": Array [
            "affiliate",
          ],
          "rating": "1",
          "rewards": true,
          "signup_method": false,
          "site_guid": false,
          "social_profiles": Array [],
          "spam": "0",
          "subscribed": false,
          "subscriber": true,
          "subscribers_count": 50,
          "subscriptions_count": 0,
          "subtype": false,
          "tags": Array [],
          "time_created": "1468113204",
          "time_updated": false,
          "type": "user",
          "urn": "",
          "username": "someusermane",
          "verified": true,
          "website": "",
          "wire_rewards": Object {
            "description": "",
            "rewards": Object {
              "money": Array [],
              "points": Array [],
            },
          },
        },
        "owner_guid": "1",
        "paywall": false,
        "perma_url": "https://www.minds.com/blog/view/836607056186159104",
        "permissions": Object {},
        "published": true,
        "rating": 1,
        "reminds": 58,
        "route": "blog/view/836607056186159104",
        "slug": "",
        "subtype": "blog",
        "thumbnail_src": "https://www.minds.com/fs/v1/banners/836607056186159104/1524838665",
        "thumbs:down:count": 1,
        "thumbs:down:user_guids": Array [
          "3",
        ],
        "thumbs:up:count": 2,
        "thumbs:up:user_guids": Array [
          "1",
          "2",
        ],
        "time_created": "1524838665",
        "time_published": "1524838665",
        "time_updated": "1524862542",
        "title": "Some Title",
        "type": "object",
        "urn": "",
        "username": "",
        "wire_threshold": "",
      }
    }
    header={
      <View
        style={
          Array [
            Object {
              "flex": 1,
            },
            undefined,
          ]
        }
      >
        <FastImage
          resizeMode="cover"
          source={
            Object {
              "headers": Object {
                "App-Version": "3.8.0",
                "Cache-Control": "no-cache, no-store, must-revalidate",
                "Content-Type": "application/json",
                "Pragma": "no-cache",
              },
              "uri": "https://www.minds.com/fs/v1/banners/836607056186159104/1524838665",
            }
          }
          style={
            Object {
              "height": 200,
            }
          }
        />
        <Text
          style={
            Object {
              "fontFamily": "Roboto-Black",
              "fontSize": 22,
              "paddingBottom": 8,
              "paddingLeft": 12,
              "paddingRight": 12,
              "paddingTop": 12,
            }
          }
        >
          Some Title
        </Text>
        <View
          style={
            Array [
              Object {
                "position": "absolute",
                "right": 10,
                "top": 10,
                "zIndex": 1,
              },
            ]
          }
        >
          <BlogActionSheet
            entity={
              Object {
                "access_id": "2",
                "allow_comments": true,
                "boost_rejection_reason": -1,
                "categories": Array [],
                "category": "education",
                "container_guid": "100",
                "custom_meta": Object {
                  "author": "",
                  "description": "",
                  "title": "",
                },
                "description": "Some Blog",
                "draft_access_id": "0",
                "excerpt": "Some description",
                "featured": false,
                "featured_id": false,
                "guid": "1",
                "header_bg": "1",
                "header_top": "0",
                "impressions": 100,
                "isOwner": [Function],
                "last_save": "1524843907",
                "last_updated": "1524838665",
                "license": "attribution-noncommercial-cc",
                "mature": false,
                "monetized": false,
                "ownerObj": Object {
                  "__list": null,
                  "access_id": "2",
                  "allow_comments": true,
                  "banned": "no",
                  "blocked": false,
                  "boostProPlus": false,
                  "boost_autorotate": true,
                  "boost_rating": "2",
                  "briefdescription": "",
                  "canary": false,
                  "categories": Array [
                    "music",
                    "nature",
                    "news",
                    "politics",
                    "science",
                    "technology",
                    "education",
                    "art",
                    "health",
                  ],
                  "chat": true,
                  "city": "",
                  "confirmEmail": [Function],
                  "container_guid": "0",
                  "deleted": "0",
                  "disable_autoplay_videos": undefined,
                  "disabled_boost": false,
                  "dob": "",
                  "email_confirmed": false,
                  "eth_wallet": "0x6fffffdadae350ddd5a1777d5a1777a4f39f0317",
                  "fb": false,
                  "feature_flags": false,
                  "featured_id": "725165605782560768",
                  "founder": false,
                  "gender": "private",
                  "getAvatarSource": [MockFunction],
                  "groupsCount": 0,
                  "guid": 100,
                  "icontime": "1523515420",
                  "impressions": 100,
                  "isOwner": [Function],
                  "is_admin": false,
                  "language": "en",
                  "last_accepted_tos": 0,
                  "legacy_guid": false,
                  "mature": "1",
                  "mature_channel": "0",
                  "mature_visibility": false,
                  "merchant": Object {
                    "exclusive": Object {
                      "amount": "10",
                      "enabled": true,
                    },
                    "id": "acct_Dsdfjdlsaf34243",
                    "service": "stripe",
                  },
                  "mode": 0,
                  "monetized": "",
                  "name": "Some User",
                  "nsfw": Array [],
                  "onchain_booster": 0,
                  "owner_guid": "0",
                  "pending_subscribe": false,
                  "permissions": Object {},
                  "pinned_posts": Array [],
                  "plus": true,
                  "pro": false,
                  "programs": Array [
                    "affiliate",
                  ],
                  "rating": "1",
                  "rewards": true,
                  "signup_method": false,
                  "site_guid": false,
                  "social_profiles": Array [],
                  "spam": "0",
                  "subscribed": false,
                  "subscriber": true,
                  "subscribers_count": 50,
                  "subscriptions_count": 0,
                  "subtype": false,
                  "tags": Array [],
                  "time_created": "1468113204",
                  "time_updated": false,
                  "type": "user",
                  "urn": "",
                  "username": "someusermane",
                  "verified": true,
                  "website": "",
                  "wire_rewards": Object {
                    "description": "",
                    "rewards": Object {
                      "money": Array [],
                      "points": Array [],
                    },
                  },
                },
                "owner_guid": "1",
                "paywall": false,
                "perma_url": "https://www.minds.com/blog/view/836607056186159104",
                "permissions": Object {},
                "published": true,
                "rating": 1,
                "reminds": 58,
                "route": "blog/view/836607056186159104",
                "slug": "",
                "subtype": "blog",
                "thumbnail_src": "https://www.minds.com/fs/v1/banners/836607056186159104/1524838665",
                "thumbs:down:count": 1,
                "thumbs:down:user_guids": Array [
                  "3",
                ],
                "thumbs:up:count": 2,
                "thumbs:up:user_guids": Array [
                  "1",
                  "2",
                ],
                "time_created": "1524838665",
                "time_published": "1524838665",
                "time_updated": "1524862542",
                "title": "Some Title",
                "type": "object",
                "urn": "",
                "username": "",
                "wire_threshold": "",
              }
            }
            navigation={Object {}}
          />
        </View>
        <View
          style={
            Object {
              "margin": 8,
            }
          }
        >
          <Unknown
            entity={
              Object {
                "access_id": "2",
                "allow_comments": true,
                "boost_rejection_reason": -1,
                "categories": Array [],
                "category": "education",
                "container_guid": "100",
                "custom_meta": Object {
                  "author": "",
                  "description": "",
                  "title": "",
                },
                "description": "Some Blog",
                "draft_access_id": "0",
                "excerpt": "Some description",
                "featured": false,
                "featured_id": false,
                "guid": "1",
                "header_bg": "1",
                "header_top": "0",
                "impressions": 100,
                "isOwner": [Function],
                "last_save": "1524843907",
                "last_updated": "1524838665",
                "license": "attribution-noncommercial-cc",
                "mature": false,
                "monetized": false,
                "ownerObj": Object {
                  "__list": null,
                  "access_id": "2",
                  "allow_comments": true,
                  "banned": "no",
                  "blocked": false,
                  "boostProPlus": false,
                  "boost_autorotate": true,
                  "boost_rating": "2",
                  "briefdescription": "",
                  "canary": false,
                  "categories": Array [
                    "music",
                    "nature",
                    "news",
                    "politics",
                    "science",
                    "technology",
                    "education",
                    "art",
                    "health",
                  ],
                  "chat": true,
                  "city": "",
                  "confirmEmail": [Function],
                  "container_guid": "0",
                  "deleted": "0",
                  "disable_autoplay_videos": undefined,
                  "disabled_boost": false,
                  "dob": "",
                  "email_confirmed": false,
                  "eth_wallet": "0x6fffffdadae350ddd5a1777d5a1777a4f39f0317",
                  "fb": false,
                  "feature_flags": false,
                  "featured_id": "725165605782560768",
                  "founder": false,
                  "gender": "private",
                  "getAvatarSource": [MockFunction],
                  "groupsCount": 0,
                  "guid": 100,
                  "icontime": "1523515420",
                  "impressions": 100,
                  "isOwner": [Function],
                  "is_admin": false,
                  "language": "en",
                  "last_accepted_tos": 0,
                  "legacy_guid": false,
                  "mature": "1",
                  "mature_channel": "0",
                  "mature_visibility": false,
                  "merchant": Object {
                    "exclusive": Object {
                      "amount": "10",
                      "enabled": true,
                    },
                    "id": "acct_Dsdfjdlsaf34243",
                    "service": "stripe",
                  },
                  "mode": 0,
                  "monetized": "",
                  "name": "Some User",
                  "nsfw": Array [],
                  "onchain_booster": 0,
                  "owner_guid": "0",
                  "pending_subscribe": false,
                  "permissions": Object {},
                  "pinned_posts": Array [],
                  "plus": true,
                  "pro": false,
                  "programs": Array [
                    "affiliate",
                  ],
                  "rating": "1",
                  "rewards": true,
                  "signup_method": false,
                  "site_guid": false,
                  "social_profiles": Array [],
                  "spam": "0",
                  "subscribed": false,
                  "subscriber": true,
                  "subscribers_count": 50,
                  "subscriptions_count": 0,
                  "subtype": false,
                  "tags": Array [],
                  "time_created": "1468113204",
                  "time_updated": false,
                  "type": "user",
                  "urn": "",
                  "username": "someusermane",
                  "verified": true,
                  "website": "",
                  "wire_rewards": Object {
                    "description": "",
                    "rewards": Object {
                      "money": Array [],
                      "points": Array [],
                    },
                  },
                },
                "owner_guid": "1",
                "paywall": false,
                "perma_url": "https://www.minds.com/blog/view/836607056186159104",
                "permissions": Object {},
                "published": true,
                "rating": 1,
                "reminds": 58,
                "route": "blog/view/836607056186159104",
                "slug": "",
                "subtype": "blog",
                "thumbnail_src": "https://www.minds.com/fs/v1/banners/836607056186159104/1524838665",
                "thumbs:down:count": 1,
                "thumbs:down:user_guids": Array [
                  "3",
                ],
                "thumbs:up:count": 2,
                "thumbs:up:user_guids": Array [
                  "1",
                  "2",
                ],
                "time_created": "1524838665",
                "time_published": "1524838665",
                "time_updated": "1524862542",
                "title": "Some Title",
                "type": "object",
                "urn": "",
                "username": "",
                "wire_threshold": "",
              }
            }
            navigation={Object {}}
          >
            <Text
              style={
                Array [
                  Object {
                    "color": "#888",
                    "fontSize": 11,
                  },
                  undefined,
                ]
              }
            >
              Apr 27, 2018, 07:17
            </Text>
          </Unknown>
        </View>
        <View
          style={
            Array [
              Object {
                "flexDirection": "row",
                "justifyContent": "flex-start",
              },
            ]
          }
        >
          <_default
            entity={
              Object {
                "access_id": "2",
                "allow_comments": true,
                "boost_rejection_reason": -1,
                "categories": Array [],
                "category": "education",
                "container_guid": "100",
                "custom_meta": Object {
                  "author": "",
                  "description": "",
                  "title": "",
                },
                "description": "Some Blog",
                "draft_access_id": "0",
                "excerpt": "Some description",
                "featured": false,
                "featured_id": false,
                "guid": "1",
                "header_bg": "1",
                "header_top": "0",
                "impressions": 100,
                "isOwner": [Function],
                "last_save": "1524843907",
                "last_updated": "1524838665",
                "license": "attribution-noncommercial-cc",
                "mature": false,
                "monetized": false,
                "ownerObj": Object {
                  "__list": null,
                  "access_id": "2",
                  "allow_comments": true,
                  "banned": "no",
                  "blocked": false,
                  "boostProPlus": false,
                  "boost_autorotate": true,
                  "boost_rating": "2",
                  "briefdescription": "",
                  "canary": false,
                  "categories": Array [
                    "music",
                    "nature",
                    "news",
                    "politics",
                    "science",
                    "technology",
                    "education",
                    "art",
                    "health",
                  ],
                  "chat": true,
                  "city": "",
                  "confirmEmail": [Function],
                  "container_guid": "0",
                  "deleted": "0",
                  "disable_autoplay_videos": undefined,
                  "disabled_boost": false,
                  "dob": "",
                  "email_confirmed": false,
                  "eth_wallet": "0x6fffffdadae350ddd5a1777d5a1777a4f39f0317",
                  "fb": false,
                  "feature_flags": false,
                  "featured_id": "725165605782560768",
                  "founder": false,
                  "gender": "private",
                  "getAvatarSource": [MockFunction],
                  "groupsCount": 0,
                  "guid": 100,
                  "icontime": "1523515420",
                  "impressions": 100,
                  "isOwner": [Function],
                  "is_admin": false,
                  "language": "en",
                  "last_accepted_tos": 0,
                  "legacy_guid": false,
                  "mature": "1",
                  "mature_channel": "0",
                  "mature_visibility": false,
                  "merchant": Object {
                    "exclusive": Object {
                      "amount": "10",
                      "enabled": true,
                    },
                    "id": "acct_Dsdfjdlsaf34243",
                    "service": "stripe",
                  },
                  "mode": 0,
                  "monetized": "",
                  "name": "Some User",
                  "nsfw": Array [],
                  "onchain_booster": 0,
                  "owner_guid": "0",
                  "pending_subscribe": false,
                  "permissions": Object {},
                  "pinned_posts": Array [],
                  "plus": true,
                  "pro": false,
                  "programs": Array [
                    "affiliate",
                  ],
                  "rating": "1",
                  "rewards": true,
                  "signup_method": false,
                  "site_guid": false,
                  "social_profiles": Array [],
                  "spam": "0",
                  "subscribed": false,
                  "subscriber": true,
                  "subscribers_count": 50,
                  "subscriptions_count": 0,
                  "subtype": false,
                  "tags": Array [],
                  "time_created": "1468113204",
                  "time_updated": false,
                  "type": "user",
                  "urn": "",
                  "username": "someusermane",
                  "verified": true,
                  "website": "",
                  "wire_rewards": Object {
                    "description": "",
                    "rewards": Object {
                      "money": Array [],
                      "points": Array [],
                    },
                  },
                },
                "owner_guid": "1",
                "paywall": false,
                "perma_url": "https://www.minds.com/blog/view/836607056186159104",
                "permissions": Object {},
                "published": true,
                "rating": 1,
                "reminds": 58,
                "route": "blog/view/836607056186159104",
                "slug": "",
                "subtype": "blog",
                "thumbnail_src": "https://www.minds.com/fs/v1/banners/836607056186159104/1524838665",
                "thumbs:down:count": 1,
                "thumbs:down:user_guids": Array [
                  "3",
                ],
                "thumbs:up:count": 2,
                "thumbs:up:user_guids": Array [
                  "1",
                  "2",
                ],
                "time_created": "1524838665",
                "time_published": "1524838665",
                "time_updated": "1524862542",
                "title": "Some Title",
                "type": "object",
                "urn": "",
                "username": "",
                "wire_threshold": "",
              }
            }
            navigation={Object {}}
          />
          <ThumbUpAction
            entity={
              Object {
                "access_id": "2",
                "allow_comments": true,
                "boost_rejection_reason": -1,
                "categories": Array [],
                "category": "education",
                "container_guid": "100",
                "custom_meta": Object {
                  "author": "",
                  "description": "",
                  "title": "",
                },
                "description": "Some Blog",
                "draft_access_id": "0",
                "excerpt": "Some description",
                "featured": false,
                "featured_id": false,
                "guid": "1",
                "header_bg": "1",
                "header_top": "0",
                "impressions": 100,
                "isOwner": [Function],
                "last_save": "1524843907",
                "last_updated": "1524838665",
                "license": "attribution-noncommercial-cc",
                "mature": false,
                "monetized": false,
                "ownerObj": Object {
                  "__list": null,
                  "access_id": "2",
                  "allow_comments": true,
                  "banned": "no",
                  "blocked": false,
                  "boostProPlus": false,
                  "boost_autorotate": true,
                  "boost_rating": "2",
                  "briefdescription": "",
                  "canary": false,
                  "categories": Array [
                    "music",
                    "nature",
                    "news",
                    "politics",
                    "science",
                    "technology",
                    "education",
                    "art",
                    "health",
                  ],
                  "chat": true,
                  "city": "",
                  "confirmEmail": [Function],
                  "container_guid": "0",
                  "deleted": "0",
                  "disable_autoplay_videos": undefined,
                  "disabled_boost": false,
                  "dob": "",
                  "email_confirmed": false,
                  "eth_wallet": "0x6fffffdadae350ddd5a1777d5a1777a4f39f0317",
                  "fb": false,
                  "feature_flags": false,
                  "featured_id": "725165605782560768",
                  "founder": false,
                  "gender": "private",
                  "getAvatarSource": [MockFunction],
                  "groupsCount": 0,
                  "guid": 100,
                  "icontime": "1523515420",
                  "impressions": 100,
                  "isOwner": [Function],
                  "is_admin": false,
                  "language": "en",
                  "last_accepted_tos": 0,
                  "legacy_guid": false,
                  "mature": "1",
                  "mature_channel": "0",
                  "mature_visibility": false,
                  "merchant": Object {
                    "exclusive": Object {
                      "amount": "10",
                      "enabled": true,
                    },
                    "id": "acct_Dsdfjdlsaf34243",
                    "service": "stripe",
                  },
                  "mode": 0,
                  "monetized": "",
                  "name": "Some User",
                  "nsfw": Array [],
                  "onchain_booster": 0,
                  "owner_guid": "0",
                  "pending_subscribe": false,
                  "permissions": Object {},
                  "pinned_posts": Array [],
                  "plus": true,
                  "pro": false,
                  "programs": Array [
                    "affiliate",
                  ],
                  "rating": "1",
                  "rewards": true,
                  "signup_method": false,
                  "site_guid": false,
                  "social_profiles": Array [],
                  "spam": "0",
                  "subscribed": false,
                  "subscriber": true,
                  "subscribers_count": 50,
                  "subscriptions_count": 0,
                  "subtype": false,
                  "tags": Array [],
                  "time_created": "1468113204",
                  "time_updated": false,
                  "type": "user",
                  "urn": "",
                  "username": "someusermane",
                  "verified": true,
                  "website": "",
                  "wire_rewards": Object {
                    "description": "",
                    "rewards": Object {
                      "money": Array [],
                      "points": Array [],
                    },
                  },
                },
                "owner_guid": "1",
                "paywall": false,
                "perma_url": "https://www.minds.com/blog/view/836607056186159104",
                "permissions": Object {},
                "published": true,
                "rating": 1,
                "reminds": 58,
                "route": "blog/view/836607056186159104",
                "slug": "",
                "subtype": "blog",
                "thumbnail_src": "https://www.minds.com/fs/v1/banners/836607056186159104/1524838665",
                "thumbs:down:count": 1,
                "thumbs:down:user_guids": Array [
                  "3",
                ],
                "thumbs:up:count": 2,
                "thumbs:up:user_guids": Array [
                  "1",
                  "2",
                ],
                "time_created": "1524838665",
                "time_published": "1524838665",
                "time_updated": "1524862542",
                "title": "Some Title",
                "type": "object",
                "urn": "",
                "username": "",
                "wire_threshold": "",
              }
            }
            orientation="row"
            size={21}
          />
          <ThumbDownAction
            entity={
              Object {
                "access_id": "2",
                "allow_comments": true,
                "boost_rejection_reason": -1,
                "categories": Array [],
                "category": "education",
                "container_guid": "100",
                "custom_meta": Object {
                  "author": "",
                  "description": "",
                  "title": "",
                },
                "description": "Some Blog",
                "draft_access_id": "0",
                "excerpt": "Some description",
                "featured": false,
                "featured_id": false,
                "guid": "1",
                "header_bg": "1",
                "header_top": "0",
                "impressions": 100,
                "isOwner": [Function],
                "last_save": "1524843907",
                "last_updated": "1524838665",
                "license": "attribution-noncommercial-cc",
                "mature": false,
                "monetized": false,
                "ownerObj": Object {
                  "__list": null,
                  "access_id": "2",
                  "allow_comments": true,
                  "banned": "no",
                  "blocked": false,
                  "boostProPlus": false,
                  "boost_autorotate": true,
                  "boost_rating": "2",
                  "briefdescription": "",
                  "canary": false,
                  "categories": Array [
                    "music",
                    "nature",
                    "news",
                    "politics",
                    "science",
                    "technology",
                    "education",
                    "art",
                    "health",
                  ],
                  "chat": true,
                  "city": "",
                  "confirmEmail": [Function],
                  "container_guid": "0",
                  "deleted": "0",
                  "disable_autoplay_videos": undefined,
                  "disabled_boost": false,
                  "dob": "",
                  "email_confirmed": false,
                  "eth_wallet": "0x6fffffdadae350ddd5a1777d5a1777a4f39f0317",
                  "fb": false,
                  "feature_flags": false,
                  "featured_id": "725165605782560768",
                  "founder": false,
                  "gender": "private",
                  "getAvatarSource": [MockFunction],
                  "groupsCount": 0,
                  "guid": 100,
                  "icontime": "1523515420",
                  "impressions": 100,
                  "isOwner": [Function],
                  "is_admin": false,
                  "language": "en",
                  "last_accepted_tos": 0,
                  "legacy_guid": false,
                  "mature": "1",
                  "mature_channel": "0",
                  "mature_visibility": false,
                  "merchant": Object {
                    "exclusive": Object {
                      "amount": "10",
                      "enabled": true,
                    },
                    "id": "acct_Dsdfjdlsaf34243",
                    "service": "stripe",
                  },
                  "mode": 0,
                  "monetized": "",
                  "name": "Some User",
                  "nsfw": Array [],
                  "onchain_booster": 0,
                  "owner_guid": "0",
                  "pending_subscribe": false,
                  "permissions": Object {},
                  "pinned_posts": Array [],
                  "plus": true,
                  "pro": false,
                  "programs": Array [
                    "affiliate",
                  ],
                  "rating": "1",
                  "rewards": true,
                  "signup_method": false,
                  "site_guid": false,
                  "social_profiles": Array [],
                  "spam": "0",
                  "subscribed": false,
                  "subscriber": true,
                  "subscribers_count": 50,
                  "subscriptions_count": 0,
                  "subtype": false,
                  "tags": Array [],
                  "time_created": "1468113204",
                  "time_updated": false,
                  "type": "user",
                  "urn": "",
                  "username": "someusermane",
                  "verified": true,
                  "website": "",
                  "wire_rewards": Object {
                    "description": "",
                    "rewards": Object {
                      "money": Array [],
                      "points": Array [],
                    },
                  },
                },
                "owner_guid": "1",
                "paywall": false,
                "perma_url": "https://www.minds.com/blog/view/836607056186159104",
                "permissions": Object {},
                "published": true,
                "rating": 1,
                "reminds": 58,
                "route": "blog/view/836607056186159104",
                "slug": "",
                "subtype": "blog",
                "thumbnail_src": "https://www.minds.com/fs/v1/banners/836607056186159104/1524838665",
                "thumbs:down:count": 1,
                "thumbs:down:user_guids": Array [
                  "3",
                ],
                "thumbs:up:count": 2,
                "thumbs:up:user_guids": Array [
                  "1",
                  "2",
                ],
                "time_created": "1524838665",
                "time_published": "1524838665",
                "time_updated": "1524862542",
                "title": "Some Title",
                "type": "object",
                "urn": "",
                "username": "",
                "wire_threshold": "",
              }
            }
            orientation="row"
            size={21}
          />
        </View>
        <View
          style={
            Object {
              "paddingBottom": 12,
              "paddingLeft": 12,
              "paddingRight": 12,
            }
          }
        >
          <BlogViewHTML
            html="Some Blog"
            onHeightUpdated={[Function]}
          />
        </View>
        <View
          style={
            Object {
              "flexDirection": "row",
              "padding": 12,
            }
          }
        >
          <Themed.Icon
            color="#b0bec5"
            name="public"
            size={18}
          />
          <Text
            style={
              Array [
                Object {
                  "fontSize": 10,
                },
                Object {
                  "paddingLeft": 5,
                },
                Object {
                  "color": "#b0bec5",
                },
                Object {
                  "paddingRight": 10,
                },
              ]
            }
          >
            Attribution-NonCommerical CC BY-NC
          </Text>
          <Themed.Icon
            color="#4690D6"
            name="share"
            onPress={[Function]}
            size={20}
          />
        </View>
        <ForwardRef(SafeAreaView)
          style={
            Object {
              "left": 0,
              "position": "absolute",
              "top": 0,
            }
          }
        >
          <Themed.Icon
            color="#4690D6"
            name="arrow-back"
            onPress={[Function]}
            raised={true}
            size={22}
          />
        </ForwardRef(SafeAreaView)>
      </View>
    }
    keyboardVerticalOffset={15}
    navigation={Object {}}
    route={
      Object {
        "params": Object {
          "guid": 1,
        },
      }
    }
    store={
      CommentsStore {
        "attachment": AttachmentStore {
          "cancelOrDelete": [Function],
          "fileName": null,
          "guid": "",
          "transcoding": false,
        },
        "embed": RichEmbedStore {
          "_richEmbedFetchTimer": null,
          "clearRichEmbedAction": [Function],
          "richEmbedUrl": "",
          "setRichEmbedPromise": null,
        },
        "entity": null,
        "focusedUrn": null,
        "guid": "",
        "level": 0,
        "loadNext": "",
        "loadPrevious": "",
        "onAttachedMedia": [Function],
        "parent": null,
        "reversed": true,
        "selectMediaType": [Function],
        "socketRoomName": "",
      }
    }
  />
</View>
`;
