// Jest Snapshot v1, https://goo.gl/fbAQLP

exports[`Activity screen component renders correctly  1`] = `
<View
  style={
    Array [
      Object {
        "fontScale": 2,
        "height": 1334,
        "scale": 2,
        "width": 750,
      },
      undefined,
      undefined,
    ]
  }
>
  <View>
    <View
      style={
        Array [
          Object {
            "alignItems": "center",
            "borderBottomWidth": 0.5,
            "display": "flex",
            "flexDirection": "row",
            "paddingHorizontal": 20,
            "paddingVertical": 13,
          },
          undefined,
          Array [
            undefined,
            Object {
              "borderBottomWidth": 0,
              "shadowColor": "#000",
              "shadowOffset": Object {
                "height": 1,
                "width": 0,
              },
              "shadowOpacity": 0.22,
              "shadowRadius": 2.22,
            },
            Object {
              "paddingTop": 10,
            },
          ],
        ]
      }
    >
      <Text
        allowFontScaling={false}
        onPress={[MockFunction]}
        style={
          Array [
            Object {
              "color": undefined,
              "fontSize": 45,
            },
            Array [
              Object {
                "elevation": 4,
                "left": 0,
                "position": "absolute",
                "shadowOffset": Object {
                  "height": 1,
                  "width": 1,
                },
                "shadowOpacity": 0.2,
                "shadowRadius": 3,
              },
              undefined,
              Object {
                "top": 5,
              },
              Array [
                undefined,
                Object {
                  "marginLeft": -17,
                  "marginRight": -5,
                  "paddingTop": 5,
                  "position": undefined,
                  "top": undefined,
                  "width": 50,
                },
              ],
            ],
            Object {
              "fontFamily": "Material Design Icons",
              "fontStyle": "normal",
              "fontWeight": "normal",
            },
            Object {},
          ]
        }
      >
        󰅁
      </Text>
      <View
        onPress={[Function]}
      >
        <View
          style={
            Array [
              Object {
                "overflow": "hidden",
              },
              Object {
                "borderRadius": 18.5,
                "height": 37,
                "width": 37,
              },
            ]
          }
        >
          <FastImageView
            resizeMode="cover"
            source={
              Object {
                "headers": Object {
                  "App-Version": "3.8.0",
                  "Cache-Control": "no-cache, no-store, must-revalidate",
                  "Content-Type": "application/json",
                  "Pragma": "no-cache",
                },
                "uri": "https://cdn.minds.com/icon/824853017709780997/medium/undefined",
              }
            }
            style={
              Object {
                "bottom": 0,
                "left": 0,
                "position": "absolute",
                "right": 0,
                "top": 0,
              }
            }
          />
        </View>
      </View>
      <View
        style={
          Object {
            "flex": 1,
            "flexWrap": "wrap",
            "marginLeft": 8,
            "paddingRight": 36,
          }
        }
      >
        <View
          style={
            Object {
              "flexDirection": "row",
            }
          }
        >
          <View
            onPress={[Function]}
            style={
              Array [
                undefined,
                undefined,
              ]
            }
          >
            <Text
              numberOfLines={1}
              style={
                Array [
                  Object {
                    "color": "#444",
                    "fontFamily": "Roboto",
                    "fontSize": 16,
                    "fontWeight": "bold",
                  },
                  undefined,
                ]
              }
            >
              
            </Text>
          </View>
        </View>
        <View>
          <Text
            numberOfLines={1}
            style={
              Array [
                undefined,
                undefined,
                undefined,
              ]
            }
          >
            3 years ago
          </Text>
        </View>
      </View>
      <View>
        <View>
          <Text
            allowFontScaling={false}
            onPress={[Function]}
            style={
              Array [
                Object {
                  "color": undefined,
                  "fontSize": 28,
                },
                undefined,
                Object {
                  "fontFamily": "Material Icons",
                  "fontStyle": "normal",
                  "fontWeight": "normal",
                },
                Object {},
              ]
            }
          >
            
          </Text>
          <Modal
            animationType="none"
            hardwareAccelerated={false}
            onRequestClose={[Function]}
            transparent={true}
            visible={false}
          >
            <View
              style={
                Array [
                  Array [
                    Object {
                      "flex": 1,
                      "flexDirection": "row",
                    },
                  ],
                ]
              }
            >
              <Text
                onPress={[Function]}
                style={
                  Array [
                    Array [
                      Object {
                        "backgroundColor": "#000",
                        "bottom": 0,
                        "left": 0,
                        "opacity": 0.4,
                        "position": "absolute",
                        "right": 0,
                        "top": 0,
                      },
                    ],
                  ]
                }
              />
              <View
                style={
                  Object {
                    "alignSelf": "flex-end",
                    "backgroundColor": "#252E31",
                    "flex": 1,
                    "height": 45.5,
                    "transform": Array [
                      Object {
                        "translateY": 45.5,
                      },
                    ],
                  }
                }
              >
                <View
                  style={
                    Array [
                      Object {
                        "alignItems": "center",
                        "backgroundColor": "#fff",
                        "height": 40,
                        "justifyContent": "center",
                      },
                      Object {
                        "alignItems": "center",
                        "backgroundColor": "#252E31",
                        "height": 40,
                        "justifyContent": "center",
                      },
                    ]
                  }
                >
                  <Text
                    style={
                      Array [
                        Object {
                          "color": "#757575",
                          "fontSize": 14,
                        },
                      ]
                    }
                  >
                    Actions
                  </Text>
                </View>
                <RCTScrollView
                  scrollEnabled={false}
                >
                  <View />
                </RCTScrollView>
                <View
                  activeOpacity={1}
                  onPress={[Function]}
                  style={
                    Array [
                      Object {
                        "alignItems": "center",
                        "backgroundColor": "#fff",
                        "height": 50,
                        "justifyContent": "center",
                        "marginTop": 6,
                      },
                      Object {
                        "alignItems": "center",
                        "backgroundColor": "#202527",
                        "height": 50,
                        "justifyContent": "center",
                        "marginTop": 6,
                      },
                    ]
                  }
                  underlayColor="#F4F4F4"
                >
                  <Text
                    style={
                      Array [
                        Array [
                          Object {
                            "fontSize": 18,
                          },
                        ],
                        Object {
                          "color": "#007AFF",
                        },
                      ]
                    }
                  />
                </View>
              </View>
            </View>
          </Modal>
        </View>
      </View>
    </View>
    <RCTScrollView
      contentContainerStyle={
        Array [
          null,
          undefined,
          Object {
            "flexGrow": 1,
            "justifyContent": "center",
          },
        ]
      }
      onContentSizeChange={[Function]}
      onLayout={[Function]}
    >
      <View>
        <View
          accessibilityLabel="touchableTextCopy"
          onLongPress={[Function]}
          style={
            Array [
              undefined,
              undefined,
            ]
          }
        >
          <View
            style={
              Array [
                Object {
                  "flex": 1,
                },
                null,
              ]
            }
          >
            <Text
              selectable={true}
              style={
                Array [
                  Array [
                    undefined,
                    undefined,
                  ],
                  undefined,
                  Object {
                    "fontWeight": "bold",
                  },
                ]
              }
            >
              TITLE
            </Text>
            <Text
              selectable={false}
              style={
                Array [
                  undefined,
                  undefined,
                ]
              }
            >
              Message
            </Text>
          </View>
        </View>
      </View>
    </RCTScrollView>
    <ViewManagerAdapter_ExpoLinearGradient
      proxiedProperties={
        Object {
          "colors": Array [
            2106663,
            4280296743,
          ],
          "endPoint": undefined,
          "locations": undefined,
          "startPoint": undefined,
        }
      }
      style={
        Object {
          "bottom": 0,
          "height": 40,
          "position": "absolute",
          "width": "100%",
        }
      }
    />
  </View>
  <View
    style={
      Object {
        "paddingBottom": -10,
      }
    }
  >
    <View>
      <View
        style={
          Array [
            Object {
              "borderTopWidth": 0.5,
              "display": "flex",
              "flexDirection": "row",
              "justifyContent": "space-evenly",
              "paddingHorizontal": 10,
            },
            undefined,
          ]
        }
      >
        <View
          onPress={[Function]}
          style={
            Array [
              undefined,
              undefined,
              undefined,
              undefined,
            ]
          }
          testID="Thumb up activity button"
        >
          <Text
            allowFontScaling={false}
            style={
              Array [
                Object {
                  "color": undefined,
                  "fontSize": 21,
                },
                Array [
                  undefined,
                  undefined,
                ],
                Object {
                  "fontFamily": "Material Icons",
                  "fontStyle": "normal",
                  "fontWeight": "normal",
                },
                Object {},
              ]
            }
          >
            
          </Text>
        </View>
        <View
          onPress={[Function]}
          style={
            Array [
              undefined,
              undefined,
              undefined,
              undefined,
            ]
          }
          testID="Thumb down activity button"
        >
          <Text
            allowFontScaling={false}
            style={
              Array [
                Object {
                  "color": undefined,
                  "fontSize": 21,
                },
                Array [
                  undefined,
                  undefined,
                ],
                Object {
                  "fontFamily": "Material Icons",
                  "fontStyle": "normal",
                  "fontWeight": "normal",
                },
                Object {},
              ]
            }
          >
            
          </Text>
        </View>
        <View
          onPress={[Function]}
          style={
            Array [
              undefined,
              undefined,
              undefined,
              undefined,
            ]
          }
          testID=""
        >
          <Text
            allowFontScaling={false}
            style={
              Array [
                Object {
                  "color": undefined,
                  "fontSize": 21,
                },
                Array [
                  undefined,
                  undefined,
                ],
                Object {
                  "fontFamily": "Material Icons",
                  "fontStyle": "normal",
                  "fontWeight": "normal",
                },
                Object {},
              ]
            }
          >
            
          </Text>
          <View
            style={
              Object {
                "alignItems": "center",
                "flexDirection": "column",
              }
            }
          >
            <Text
              size={15}
              style={
                Array [
                  undefined,
                  undefined,
                  undefined,
                  undefined,
                ]
              }
            >
              
            </Text>
          </View>
        </View>
        <View
          onPress={[Function]}
          style={
            Array [
              undefined,
              undefined,
              undefined,
              undefined,
            ]
          }
          testID="Remind activity button"
        >
          <Text
            allowFontScaling={false}
            style={
              Array [
                Object {
                  "color": undefined,
                  "fontSize": 21,
                },
                Array [
                  undefined,
                  Object {
                    "marginRight": 5,
                  },
                ],
                Object {
                  "fontFamily": "Material Icons",
                  "fontStyle": "normal",
                  "fontWeight": "normal",
                },
                Object {},
              ]
            }
          >
            
          </Text>
          <View
            style={
              Object {
                "alignItems": "center",
                "flexDirection": "column",
              }
            }
          >
            <Text
              size={15}
              style={
                Array [
                  undefined,
                  undefined,
                  undefined,
                  undefined,
                ]
              }
            >
              
            </Text>
          </View>
        </View>
      </View>
    </View>
  </View>
  <BottomSheet
    callbackNode={
      Array [
        Array [
          1,
        ],
      ]
    }
    enabledContentGestureInteraction={false}
    enabledContentTapInteraction={false}
    enabledHeaderGestureInteraction={true}
    enabledInnerScrolling={false}
    initialSnap={0}
    onCloseEnd={[Function]}
    renderContent={[Function]}
    renderHeader={[Function]}
    snapPoints={
      Array [
        0,
        760.3799999999999,
        1160.58,
      ]
    }
  />
</View>
`;
